<?xml version="1.0" standalone="no"?>
<!DOCTYPE svg PUBLIC "-//W3C//DTD SVG 20010904//EN"
 "http://www.w3.org/TR/2001/REC-SVG-20010904/DTD/svg10.dtd">
<svg version="1.0" xmlns="http://www.w3.org/2000/svg"
 width="700.000000pt" height="700.000000pt" viewBox="0 0 700.000000 700.000000"
 preserveAspectRatio="xMidYMid meet">
<metadata>
Created by potrace 1.11, written by Peter Selinger 2001-2013
</metadata>
<g transform="translate(0.000000,700.000000) scale(0.100000,-0.100000)"
fill="#000000" stroke="none">
<path d="M937 6791 c-50 -32 -60 -57 -61 -146 l-1 -82 -267 0 c-295 0 -299 -1
-338 -66 -25 -40 -25 -72 -2 -116 33 -65 52 -69 338 -69 140 0 258 -3 262 -6
3 -4 7 -32 7 -62 1 -51 0 -54 -25 -55 -14 0 -130 0 -259 0 -261 0 -284 -4
-321 -64 -25 -41 -25 -81 0 -122 39 -64 42 -65 337 -67 l268 -1 0 -60 -1 -60
-251 -2 c-138 0 -265 -4 -282 -8 -43 -9 -91 -70 -91 -115 0 -39 25 -82 61
-108 21 -15 57 -17 279 -19 140 -1 262 -2 270 -2 13 -1 15 -24 15 -153 0 -127
3 -158 17 -188 19 -37 70 -70 109 -70 36 0 97 41 111 74 10 24 13 186 13 755
0 657 -1 728 -17 762 -28 64 -112 89 -171 50z"/>
<path d="M1306 6789 c-58 -46 -56 -21 -56 -730 0 -636 0 -652 20 -684 52 -85
172 -79 214 10 14 29 16 111 16 689 l0 655 -38 41 c-34 35 -44 40 -84 40 -31
0 -54 -7 -72 -21z"/>
<path d="M1687 6791 c-65 -43 -62 0 -62 -721 0 -565 2 -659 15 -684 33 -65
111 -90 168 -56 52 32 65 62 67 152 l1 81 360 2 c340 2 362 3 418 23 33 12 79
34 103 48 50 29 149 126 158 155 4 10 12 19 18 19 7 1 827 2 1822 3 l1810 2
40 21 c55 30 89 64 115 114 67 131 10 281 -128 342 -46 21 -53 21 -1854 21
l-1807 -1 -17 26 c-73 112 -208 198 -342 218 -26 4 -193 7 -371 8 l-325 1 -2
81 c-1 59 -6 88 -19 108 -36 55 -115 72 -168 37z"/>
<path d="M1323 5173 c-18 -8 -42 -30 -53 -48 -19 -32 -20 -49 -20 -684 0 -709
-2 -684 56 -730 33 -26 95 -28 135 -4 59 35 59 30 59 741 0 613 -1 648 -19
675 -38 58 -101 78 -158 50z"/>
<path d="M934 5041 c-61 -37 -59 -15 -59 -732 0 -608 1 -657 18 -682 53 -81
161 -82 214 -1 17 26 18 70 19 678 1 640 0 652 -20 689 -35 66 -109 86 -172
48z"/>
<path d="M3130 4174 c-36 -9 -69 -16 -75 -17 -5 -2 -35 -15 -67 -29 -219 -101
-362 -324 -360 -560 0 -102 102 -161 187 -108 38 23 56 59 61 120 6 65 12 89
41 148 48 98 148 175 260 200 43 10 445 8 493 -2 14 -2 43 -7 65 -11 135 -19
374 -109 471 -176 24 -16 45 -29 49 -29 13 0 153 -116 216 -179 202 -202 324
-435 384 -736 4 -22 12 -105 20 -207 5 -75 23 -111 66 -134 97 -50 191 27 183
149 -13 195 -21 247 -56 377 -152 575 -613 1023 -1193 1161 -149 35 -200 40
-445 44 -181 2 -250 0 -300 -11z"/>
<path d="M3425 3805 c-86 -18 -118 -30 -178 -64 -147 -85 -248 -259 -244 -421
2 -57 4 -64 39 -96 30 -27 46 -34 79 -34 70 0 129 59 129 129 0 46 33 124 69
164 18 19 56 45 84 57 46 20 63 22 157 17 152 -8 260 -37 399 -109 279 -144
461 -393 526 -718 3 -14 8 -61 11 -105 6 -100 26 -149 69 -169 70 -33 136 -11
171 56 23 45 8 239 -29 374 -132 475 -522 828 -1002 907 -49 8 -117 16 -149
16 -33 1 -62 3 -65 5 -3 2 -33 -3 -66 -9z"/>
<path d="M1777 3564 c-1 -1 -49 -4 -107 -7 -174 -10 -308 -46 -475 -128 -148
-72 -306 -197 -403 -318 -21 -25 -40 -48 -43 -51 -13 -9 -108 -168 -124 -206
-57 -131 -85 -219 -111 -344 -4 -19 -9 -216 -11 -437 -4 -360 -3 -405 12 -437
43 -89 162 -96 214 -12 18 29 20 57 24 436 5 450 6 463 77 635 109 269 346
486 623 570 48 14 98 28 110 30 91 14 138 16 285 16 92 -1 178 -3 192 -5 14
-2 52 -7 85 -11 78 -9 171 -30 270 -61 495 -158 857 -557 1061 -1172 39 -116
84 -288 100 -382 5 -25 21 -123 29 -169 3 -14 7 -50 10 -80 3 -31 8 -69 10
-86 2 -16 7 -87 10 -156 l7 -126 -61 -1 c-39 0 -61 4 -62 11 -18 316 -22 353
-68 620 -27 155 -96 384 -164 544 -173 402 -464 704 -812 840 -90 36 -201 69
-259 78 -21 4 -48 9 -60 11 -126 26 -364 23 -469 -5 -331 -87 -574 -338 -646
-666 -25 -112 -28 -312 -6 -359 41 -86 160 -95 212 -17 13 20 19 59 24 171 8
167 25 234 88 339 78 132 195 225 346 277 67 22 98 27 190 27 61 1 138 -2 173
-6 564 -64 945 -467 1112 -1172 12 -49 24 -101 26 -115 2 -14 6 -38 9 -55 3
-16 7 -41 10 -55 5 -25 11 -70 20 -152 2 -24 7 -65 10 -93 3 -27 8 -116 10
-197 5 -148 5 -148 -17 -149 -105 -6 -102 -8 -105 71 -4 132 -14 308 -18 340
-2 19 -6 60 -9 90 -5 61 -44 289 -51 300 -3 4 -7 25 -11 46 -9 57 -80 266
-119 351 -83 179 -208 347 -325 436 -30 23 -57 44 -60 47 -12 13 -110 68 -175
97 -202 92 -508 121 -636 60 -112 -53 -202 -178 -215 -299 -11 -97 38 -161
121 -161 22 0 52 7 67 17 29 19 58 72 58 106 0 32 26 76 61 100 28 21 39 22
127 17 53 -3 121 -10 150 -16 356 -71 585 -334 707 -811 19 -74 19 -70 39
-210 26 -177 33 -271 40 -507 2 -83 14 -74 -109 -74 -113 0 -115 0 -78 18 59
30 79 109 43 168 -39 63 -48 64 -426 62 -371 -2 -371 -2 -410 -62 -35 -54 -8
-153 46 -170 47 -15 10 -20 -146 -20 l-166 0 4 50 c6 66 46 153 98 209 43 46
138 100 195 111 17 3 186 6 377 6 387 1 393 2 430 70 23 43 23 76 -2 116 -40
66 -45 66 -445 66 -220 -1 -378 -5 -407 -12 -149 -35 -287 -121 -375 -236 -67
-88 -118 -222 -125 -327 -2 -30 -8 -48 -15 -49 -17 -1 -78 -1 -99 0 -14 1 -15
11 -9 69 26 266 195 502 439 612 130 59 162 63 513 66 360 3 368 5 402 72 30
60 13 121 -46 159 -24 16 -58 18 -317 19 -400 2 -500 -13 -681 -101 -266 -129
-473 -384 -535 -660 -7 -27 -14 -59 -16 -70 -3 -11 -6 -51 -9 -88 -2 -38 -6
-71 -8 -74 -5 -4 -64 -6 -109 -4 -12 1 -15 8 -13 29 2 15 6 59 10 97 20 232
132 468 310 654 86 89 228 191 336 240 77 35 217 78 279 86 25 3 56 8 70 10
14 3 110 6 213 7 204 2 227 7 263 63 36 55 8 146 -55 175 -39 18 -386 14 -509
-5 -441 -70 -821 -347 -1022 -745 -80 -159 -135 -370 -142 -548 -1 -29 -6 -56
-11 -59 -5 -3 -146 -6 -313 -5 l-303 0 17 -27 c62 -97 251 -374 280 -410 111
-137 267 -239 433 -282 45 -11 94 -23 108 -25 42 -6 5293 -5 5326 1 159 30
277 80 389 164 81 62 98 79 162 161 59 75 274 397 274 409 0 5 -191 8 -424 8
-233 0 -428 3 -433 6 -5 3 -11 32 -12 64 -17 453 -279 881 -686 1121 -140 82
-336 150 -484 168 -25 3 -59 7 -76 10 -16 3 -256 6 -532 6 -559 0 -543 2 -577
-69 -21 -45 -20 -79 4 -118 39 -63 34 -63 575 -63 270 0 504 -3 520 -6 17 -2
50 -8 74 -11 107 -15 279 -79 386 -142 300 -179 516 -518 541 -852 4 -47 8
-89 10 -93 8 -13 -22 -22 -70 -20 -27 1 -50 3 -52 4 -1 2 -5 30 -8 63 -15 156
-51 282 -117 405 -134 249 -390 445 -650 499 -30 6 -65 14 -79 17 -14 4 -228
8 -476 9 -425 3 -454 2 -482 -15 -43 -26 -64 -63 -64 -110 1 -46 32 -93 72
-110 18 -8 171 -12 471 -14 244 -2 453 -6 464 -9 89 -23 118 -33 171 -57 246
-111 422 -359 439 -616 5 -70 8 -66 -60 -66 -59 0 -63 2 -61 18 7 50 -36 212
-77 284 -95 170 -288 299 -475 317 -91 8 -678 8 -724 -1 -46 -8 -98 -67 -98
-109 0 -40 27 -92 58 -114 25 -16 58 -18 372 -20 190 -1 363 -5 385 -8 22 -3
63 -16 91 -29 120 -56 195 -162 217 -309 5 -31 21 -28 -178 -28 -174 0 -165
-2 -132 20 42 27 59 58 59 104 -1 48 -25 85 -71 109 -29 15 -74 17 -366 16
-369 0 -377 -2 -416 -64 -36 -59 -8 -148 56 -174 18 -8 18 -9 -5 -10 -26 -2
-111 -2 -166 -1 l-31 1 -1 118 c-2 228 -16 371 -67 692 -4 19 -19 91 -36 160
-122 514 -350 919 -679 1208 -146 128 -342 247 -505 308 -38 15 -79 30 -90 35
-30 14 -243 66 -295 73 -25 3 -56 8 -70 11 -36 7 -347 24 -353 19z"/>
<path d="M3442 3420 c-42 -26 -63 -61 -64 -108 0 -45 24 -87 61 -107 15 -7 58
-16 97 -19 244 -20 453 -169 541 -388 26 -63 41 -134 49 -222 2 -32 11 -68 19
-79 24 -34 68 -57 111 -57 33 0 48 7 77 35 21 20 38 44 38 53 21 290 -135 594
-390 763 -73 47 -192 103 -241 112 -14 3 -44 10 -66 16 -23 6 -77 13 -121 15
-66 4 -86 1 -111 -14z"/>
<path d="M3443 3048 c-38 -23 -64 -65 -65 -108 -1 -69 48 -119 125 -127 138
-13 231 -101 244 -231 7 -59 35 -109 73 -130 41 -21 108 -9 144 27 27 27 31
39 32 89 6 201 -152 413 -351 472 -61 18 -176 22 -202 8z"/>
</g>
</svg>
